R语言数据清洗与预处理
…
小结：交叉验证是评估模型性能的重要方法。

11.5 重采样

Bootstrap重采样。

# 使用rsample包进行bootstrap
library(rsample)

set.seed(123)
boot_samples <- bootstraps(ml_data, times = 100)  # 100次bootstrap
boot_samples

## # Bootstrap sampling 
## # A tibble: 100 × 2
##    splits           id          
##    <list>           <chr>       
##  1 <split [100/41]> Bootstrap001
##  2 <split [100/38]> Bootstrap002
##  3 <split [100/42]> Bootstrap003
##  4 <split [100/40]> Bootstrap004
##  5 <split [100/30]> Bootstrap005
##  6 <split [100/30]> Bootstrap006
##  7 <split [100/36]> Bootstrap007
##  8 <split [100/35]> Bootstrap008
##  9 <split [100/32]> Bootstrap009
## 10 <split [100/36]> Bootstrap010
## # ℹ 90 more rows
…
